{
  "autoLogIns": false,
  "autoLogLidar": false,
  "lidarDeviceIndex": 3,
  "insDeviceIndex": 4,
  "cameraDeviceIndex": 3,
  "productIndex": 11,
  "logInternal": false,
  "insScript": "front-of-uav.snoopy-m200"
}
